<?xml version="1.0" encoding="UTF-8"?>
<svg width="16px" height="16px" viewBox="0 0 14 14" version="1.1" xmlns="http://www.w3.org/2000/svg" xmlns:xlink="http://www.w3.org/1999/xlink">
    <!-- Generator: Sketch 52.4 (67378) - http://www.bohemiancoding.com/sketch -->
    <title>Group 12</title>
    <desc>Created with Sketch.</desc>
    <g id="Page-1" stroke="none" stroke-width="1" fill="none" fill-rule="evenodd">
        <g id="magenta-footer-icons" transform="translate(-324.000000, -50.000000)">
            <g id="Footer" transform="translate(35.000000, 48.000000)">
                <g id="Group-8">
                    <g>
                        <g id="Group-12" transform="translate(288.000000, 0.000000)">
                            <g id="business">
                                <polygon id="Shape" points="0 0 16 0 16 16 0 16"></polygon>
                                <path d="M8,4.66666667 L8,2 L1.33333333,2 L1.33333333,14 L14.6666667,14 L14.6666667,4.66666667 L8,4.66666667 Z M4,12.6666667 L2.66666667,12.6666667 L2.66666667,11.3333333 L4,11.3333333 L4,12.6666667 Z M4,10 L2.66666667,10 L2.66666667,8.66666667 L4,8.66666667 L4,10 Z M4,7.33333333 L2.66666667,7.33333333 L2.66666667,6 L4,6 L4,7.33333333 Z M4,4.66666667 L2.66666667,4.66666667 L2.66666667,3.33333333 L4,3.33333333 L4,4.66666667 Z M6.66666667,12.6666667 L5.33333333,12.6666667 L5.33333333,11.3333333 L6.66666667,11.3333333 L6.66666667,12.6666667 Z M6.66666667,10 L5.33333333,10 L5.33333333,8.66666667 L6.66666667,8.66666667 L6.66666667,10 Z M6.66666667,7.33333333 L5.33333333,7.33333333 L5.33333333,6 L6.66666667,6 L6.66666667,7.33333333 Z M6.66666667,4.66666667 L5.33333333,4.66666667 L5.33333333,3.33333333 L6.66666667,3.33333333 L6.66666667,4.66666667 Z M13.3333333,12.6666667 L8,12.6666667 L8,11.3333333 L9.33333333,11.3333333 L9.33333333,10 L8,10 L8,8.66666667 L9.33333333,8.66666667 L9.33333333,7.33333333 L8,7.33333333 L8,6 L13.3333333,6 L13.3333333,12.6666667 Z M12,7.33333333 L10.6666667,7.33333333 L10.6666667,8.66666667 L12,8.66666667 L12,7.33333333 Z M12,10 L10.6666667,10 L10.6666667,11.3333333 L12,11.3333333 L12,10 Z" id="Shape" fill="#E20074" fill-rule="nonzero"></path>
                            </g>
                        </g>
                    </g>
                </g>
            </g>
        </g>
    </g>
</svg>