{
"name": "Natasha" ,
"billingCycle" : "JUL 27TH - Aug 26TH",
"restricted" : false,
"noEdit" : false,
"message" : "Designate a Parent Line and manage allowed numbers, minutes, messages, and downloads for all lines on your account.",
"allowance": [
    {
        "title": "Minutes",
        "suheading": "View and set calling allowances on managed lines for the current billing cycle.",
        "allowanceCheck": true,
        "currentInfo": "200",
        "usedInfo": "100",
        "remainingInfo": "100",
        "alerts" : [ {"desc": "This will disable calls for this line until you set the limit above 0. Always Allowed numbers can still be reached. two lines of content"},
                     {"desc": "You have reached or exceeded your total allowance set."}]
    },
    {
        "title": "Messages",
        "suheading": "View and set calling allowances on managed lines for the current billing cycle.",
        "allowanceCheck": true,
        "currentInfo": "200",
        "usedInfo": "100",
        "remainingInfo": "100",
        "alerts" : [ {"desc": "Messaging will be blocked for this line until you set the allowance above 0. Always Allowed numbers can still be reached."},
                     {"desc": "You have exceeded your total message allowance."}]
    },
    {
        "title": "Downloads",
        "suheading": "View and set calling allowances on managed lines for the current billing cycle.",
        "allowanceCheck": true,
        "currentInfo": "200",
        "usedInfo": "100",
        "remainingInfo": "100",
        "alerts" : [ {"desc": "This line has no allowance set, meaning that this line's user can download without restrictions."}]
    }
],
"schedule": [
    { "week": "Monday - Friday",
      "timeslot" : [{"slot": "9AM - 2PM", "selected": false},{"slot": "4PM - 9PM", "selected":true},{"slot": "9PM - 11PM", "selected":true},{"slot": "11PM - 6AM","selected":false}
      ]
    },
    { "week": "Saturday - Sunday",
      "timeslot" : [{"slot": "9AM - Noon", "selected":true},{"slot": "Noon - 6PM", "selected":true},{"slot": "6PM - 11PM", "selected":true},{"slot": "11PM - 6AM", "selected":true}
      ]
    }
],
"selectLine": [
    { "title": "Samantha"},
    { "title": "Samuel"},
    { "title": "Sandra"}
],
"parentLine": [
    { "name": "Natasha"},
    { "name": "Justin"},
    { "name": "Samantha"}
],
"allowableNumbers": [
    {"number": "911", "description": "Emergency Services", "removable": false},
    {"number": "1-877-453-1304 or 611", "description": "T-Mobile Customer Care", "removable": false},
    {"number": "(000) 000-0000", "description": "", "removable": true},
    {"number": "(000) 000-0000", "description": "", "removable": true}
],
"neverAllowableNumbers":  [
    {"number": "(000) 000-0000", "removable": true}
  ],
"changeHistory":  [
    {"name": "JUL 27TH - AUG 26TH",
    "changes": [
        {"dateTime":"8/14/2018 10:42AM", "desc":"Whenever minutes changed from 500 to No Allowance"},
        {"dateTime":"8/14/2018 10:42AM", "desc":"Whenever minutes changed from 500 to No Allowance"},
        {"dateTime":"8/14/2018 10:42AM", "desc":"Whenever minutes changed from 500 to No Allowance"},
        {"dateTime":"8/14/2018 10:42AM", "desc":"Whenever minutes changed from 500 to No Allowance"},
        {"dateTime":"8/14/2018 10:42AM", "desc":"Whenever minutes changed from 500 to No Allowance"},
        {"dateTime":"8/14/2018 10:42AM", "desc":"Whenever minutes changed from 500 to No Allowance"},
        {"dateTime":"8/14/2018 10:42AM", "desc":"Whenever minutes changed from 500 to No Allowance"},
        {"dateTime":"8/14/2018 10:42AM", "desc":"Whenever minutes changed from 500 to No Allowance"},
        {"dateTime":"8/14/2018 10:42AM", "desc":"Whenever minutes changed from 500 to No Allowance"},
        {"dateTime":"8/14/2018 10:42AM", "desc":"Whenever minutes changed from 500 to No Allowance"},
        {"dateTime":"8/14/2018 10:42AM", "desc":"Whenever minutes changed from 500 to No Allowance"},
        {"dateTime":"8/14/2018 10:42AM", "desc":"Whenever minutes changed from 500 to No Allowance"},
        {"dateTime":"8/14/2018 10:42AM", "desc":"Whenever minutes changed from 500 to No Allowance"},
        {"dateTime":"8/14/2018 10:42AM", "desc":"Whenever minutes changed from 500 to No Allowance"},
        {"dateTime":"8/14/2018 10:42AM", "desc":"Whenever minutes changed from 500 to No Allowance"},
        {"dateTime":"8/14/2018 10:42AM", "desc":"Whenever minutes changed from 500 to No Allowance"},
        {"dateTime":"8/14/2018 10:42AM", "desc":"Whenever minutes changed from 500 to No Allowance"},
        {"dateTime":"8/14/2018 10:42AM", "desc":"Whenever minutes changed from 500 to No Allowance"},
        {"dateTime":"8/14/2018 10:42AM", "desc":"Whenever minutes changed from 500 to No Allowance"},
        {"dateTime":"8/14/2018 10:42AM", "desc":"Whenever minutes changed from 500 to No Allowance"},
        {"dateTime":"8/14/2018 10:42AM", "desc":"Whenever minutes changed from 500 to No Allowance"},
        {"dateTime":"8/14/2018 10:42AM", "desc":"Whenever minutes changed from 500 to No Allowance"},
        {"dateTime":"8/14/2018 10:42AM", "desc":"Whenever minutes changed from 500 to No Allowance"},
        {"dateTime":"8/14/2018 10:42AM", "desc":"Whenever minutes changed from 500 to No Allowance"},
        {"dateTime":"8/14/2018 10:42AM", "desc":"Whenever minutes changed from 500 to No Allowance"},
        {"dateTime":"8/14/2018 10:42AM", "desc":"Whenever minutes changed from 500 to No Allowance"},
        {"dateTime":"8/14/2018 10:42AM", "desc":"Whenever minutes changed from 500 to No Allowance"},
        {"dateTime":"8/14/2018 10:42AM", "desc":"Whenever minutes changed from 500 to No Allowance"},
        {"dateTime":"8/14/2018 10:42AM", "desc":"Whenever minutes changed from 500 to No Allowance"},
        {"dateTime":"8/14/2018 10:42AM", "desc":"Whenever minutes changed from 500 to No Allowance"},{"dateTime":"8/14/2018 10:42AM", "desc":"Whenever minutes changed from 500 to No Allowance"},
        {"dateTime":"8/14/2018 10:42AM", "desc":"Whenever minutes changed from 500 to No Allowance"},
        {"dateTime":"8/14/2018 10:42AM", "desc":"Whenever minutes changed from 500 to No Allowance"},
        {"dateTime":"8/14/2018 10:42AM", "desc":"Whenever minutes changed from 500 to No Allowance"},
        {"dateTime":"8/14/2018 10:42AM", "desc":"Whenever minutes changed from 500 to No Allowance"},
        {"dateTime":"8/14/2018 10:42AM", "desc":"Whenever minutes changed from 500 to No Allowance"},
        {"dateTime":"8/14/2018 10:42AM", "desc":"Whenever minutes changed from 500 to No Allowance"},
        {"dateTime":"8/14/2018 10:42AM", "desc":"Whenever minutes changed from 500 to No Allowance"},
        {"dateTime":"8/14/2018 10:42AM", "desc":"Whenever minutes changed from 500 to No Allowance"},
        {"dateTime":"8/14/2018 10:42AM", "desc":"Whenever minutes changed from 500 to No Allowance"},
        {"dateTime":"8/14/2018 10:42AM", "desc":"Whenever minutes changed from 500 to No Allowance"},
        {"dateTime":"8/14/2018 10:42AM", "desc":"Whenever minutes changed from 500 to No Allowance"},
        {"dateTime":"8/14/2018 10:42AM", "desc":"Whenever minutes changed from 500 to No Allowance"},
        {"dateTime":"8/14/2018 10:42AM", "desc":"Whenever minutes changed from 500 to No Allowance"},
        {"dateTime":"8/14/2018 10:42AM", "desc":"Whenever minutes changed from 500 to No Allowance"},
        {"dateTime":"8/14/2018 10:42AM", "desc":"Whenever minutes changed from 500 to No Allowance"},
        {"dateTime":"8/14/2018 10:42AM", "desc":"Whenever minutes changed from 500 to No Allowance"},
        {"dateTime":"8/14/2018 10:42AM", "desc":"Whenever minutes changed from 500 to No Allowance"},
        {"dateTime":"8/14/2018 10:42AM", "desc":"Whenever minutes changed from 500 to No Allowance"},
        {"dateTime":"8/14/2018 10:42AM", "desc":"Whenever minutes changed from 500 to No Allowance"},
        {"dateTime":"8/14/2018 10:42AM", "desc":"Whenever minutes changed from 500 to No Allowance"},
        {"dateTime":"8/14/2018 10:42AM", "desc":"Whenever minutes changed from 500 to No Allowance"},
        {"dateTime":"8/14/2018 10:42AM", "desc":"Whenever minutes changed from 500 to No Allowance"},
        {"dateTime":"8/14/2018 10:42AM", "desc":"Whenever minutes changed from 500 to No Allowance"},
        {"dateTime":"8/14/2018 10:42AM", "desc":"Whenever minutes changed from 500 to No Allowance"},
        {"dateTime":"8/14/2018 10:42AM", "desc":"Whenever minutes changed from 500 to No Allowance"},
        {"dateTime":"8/14/2018 10:42AM", "desc":"Whenever minutes changed from 500 to No Allowance"},
        {"dateTime":"8/14/2018 10:42AM", "desc":"Whenever minutes changed from 500 to No Allowance"},
        {"dateTime":"8/14/2018 10:42AM", "desc":"Whenever minutes changed from 500 to No Allowance"},
        {"dateTime":"8/14/2018 10:42AM", "desc":"Whenever minutes changed from 500 to No Allowance"},
        {"dateTime":"8/14/2018 10:42AM", "desc":"Whenever minutes changed from 500 to No Allowance"},
        {"dateTime":"8/14/2018 10:42AM", "desc":"Whenever minutes changed from 500 to No Allowance"},
        {"dateTime":"8/14/2018 10:42AM", "desc":"Whenever minutes changed from 500 to No Allowance"},
        {"dateTime":"8/14/2018 10:42AM", "desc":"Whenever minutes changed from 500 to No Allowance"},
        {"dateTime":"8/14/2018 10:42AM", "desc":"Whenever minutes changed from 500 to No Allowance"},
        {"dateTime":"8/14/2018 10:42AM", "desc":"Whenever minutes changed from 500 to No Allowance"},
        {"dateTime":"8/14/2018 10:42AM", "desc":"Whenever minutes changed from 500 to No Allowance"},
        {"dateTime":"8/14/2018 10:42AM", "desc":"Whenever minutes changed from 500 to No Allowance"},
        {"dateTime":"8/14/2018 10:42AM", "desc":"Whenever minutes changed from 500 to No Allowance"},
        {"dateTime":"8/14/2018 10:42AM", "desc":"Whenever minutes changed from 500 to No Allowance"},
        {"dateTime":"8/14/2018 10:42AM", "desc":"Whenever minutes changed from 500 to No Allowance"},
        {"dateTime":"8/14/2018 10:42AM", "desc":"Whenever minutes changed from 500 to No Allowance"}
    ]},
    {"name": "AUG 27TH - SEP 26TH",
        "changes": [
        {"dateTime":"09/14/2018 10:42AM", "desc":"Whenever minutes changed from 500 to No Allowance"}
    ]},
    {"name": "SEP 27TH - OCT 26TH",
        "changes": [
        {"dateTime":"10/14/2018 10:42AM", "desc":"Whenever minutes changed from 500 to No Allowance"}
    ]},
    {"name": "OCT 27TH - NOV 26TH",
        "changes": [
        {"dateTime":"11/14/2018 10:42AM", "desc":"Whenever minutes changed from 500 to No Allowance"}
    ]},
    {"name": "NOV 27TH - DEC 26TH",
        "changes": [
        {"dateTime":"09/14/2018 10:42AM", "desc":"Whenever minutes changed from 500 to No Allowance"}
    ]}
  ]
}