<svg xmlns="http://www.w3.org/2000/svg" width="96" height="72" viewBox="0 0 96 72">
    <g fill="none" fill-rule="evenodd">
        <path d="M12 0h72v72H12z"/>
        <path stroke="#E20074" d="M24 30v21h9V30h-9zm18 0v21h9V30h-9zM18 66h57v-9H18v9zm42-36v21h9V30h-9zM46.5 3L18 18v6h57v-6L46.5 3z"/>
    </g>
</svg>
