<svg xmlns="http://www.w3.org/2000/svg" width="96" height="72" viewBox="0 0 96 72">
    <g fill="none" fill-rule="evenodd">
        <path d="M12 0h72v72H12z"/>
        <path stroke="#E20074" d="M72 12H24c-3.33 0-5.97 2.67-5.97 6L18 54c0 3.33 2.67 6 6 6h48c3.33 0 6-2.67 6-6V18c0-3.33-2.67-6-6-6zm0 42H24V36h48v18zm0-30H24v-6h48v6z"/>
    </g>
</svg>
