{
    "accountName" : "Jordan",
    "phoneNumber": "(360) 317-3140",
    "accountType": "prepaid",
     "notifications": [
        {
            "title": "New payment wallet",
            "description": "Save up to 10 payment methods per line for secure, easy payments. Just re-enter payment info once to save a payment method.",
            "type": "info",
            "url": "",
            "additionalLink":"Click here for details"
        },
        {
            "title": "Line Suspended - Lost or Stolen",
            "description": "Line (917) 765-1111 has been reported lost or stolen and service has been suspended.",
            "type": "error",
            "url": "",
            "additionalLink":"See more"
        },
        {
            "title": "Account holder missing",
            "description": "Your online services are limited because no primary account holder has been designated.",
            "type": "warning",
            "url": "",
            "additionalLink":"See more"
        },
        {
            "title": "Order in progress",
            "description": "Your device order #34095582 for line (425) 324-8056 is being processed.",
            "type": "info",
            "url": "",
            "additionalLink":"See more"
        }
    ],
    "accountBalance": [
      { 
        "price": "25",
        "unit": ".40",
        "autopayDetails" :[],
        "alertInfo": {},
        "accountInfo":[{
            "title":"Account status",
            "description":"Active",
            "accountLink":"Primary"
        },
        {
            "title":"Use by",
            "description":"Dec 11, 2019 12:00:00AM"
        }
    ]
      }
    ],
    "shortcuts": [
        {
            "image": "assets/img/svg/icons/autopay.svg",
            "description": "Enroll in AutoPay",
            "url": ""
        },
        {
            "image": "assets/img/svg/icons/order-status.svg",
            "description": "Voicemail",
            "url": ""
        },
        {
            "image": "assets/img/svg/icons/change-plan.svg",
            "description": "Check trade-in status",
            "url": ""
        },
        {
            "image": "assets/img/svg/icons/change-plan.svg",
            "description": "Change Plan",
            "url": ""
        },
        {
            "image": "assets/img/svg/icons/lost-stolen.svg",
            "description": "Report a lost or stolen device",
            "url": ""
        }
    ],
    "myLineDetails": {
        "title": "My line",
        "number": "(425) 205-8547",
        "upgradeEarly": true,
        "url": "",
        "image": "assets/img/png/tmo-home/phone-large.png",
        "data": [
            {
                "title": "LG GS170",
                "subtitle":"",
                "description": "Cherry Red",
                "expand":true
            },
            {
                "title": "Current plan",
                "subtitle":"",
                "description": "Pay as You Go - Legacy",
                "expand":true
            },
            {
                "title": "Messages used",
                "subtitle":"365",
                "description": "",
                "expand":false
            },
            {
                "title": "Minutes used",
                "subtitle":"169",
                "description": "",
                "expand":false
            }
        ]
    }
}