<svg id="9bc296d7-73d7-4d47-b66d-93d10df02388" data-name="Layer 1" xmlns="http://www.w3.org/2000/svg" xmlns:xlink="http://www.w3.org/1999/xlink" viewBox="0 0 24 24">
  <defs>
    <style>
      .\37 e344a00-c6d8-4bdc-a7b5-6e5901280a7e {
        fill: none;
      }

      .e725bd1e-1d1b-42ee-9abe-fe20382ac238 {
        clip-path: url(#eee24d25-f5a0-46d0-9035-6e46a151bb03);
      }

      .\35 ce8c2e5-3a4f-485d-94ef-75b7afcfadc6 {
        clip-path: url(#48bad025-fe18-41e6-9974-aca49f5c6c1a);
      }

      .\34 c37c7ce-c233-4f59-acb1-2270e4954096 {
        fill: red;
      }
    </style>
    <clipPath id="eee24d25-f5a0-46d0-9035-6e46a151bb03">
      <path class="7e344a00-c6d8-4bdc-a7b5-6e5901280a7e" d="M13,13H11V7h2Zm0,4H11V15h2ZM12,2A10,10,0,1,0,22,12,10.00044,10.00044,0,0,0,12,2Z"/>
    </clipPath>
    <clipPath id="48bad025-fe18-41e6-9974-aca49f5c6c1a">
      <rect class="7e344a00-c6d8-4bdc-a7b5-6e5901280a7e" width="24" height="24"/>
    </clipPath>
  </defs>
  <title>icon</title>
  <g class="e725bd1e-1d1b-42ee-9abe-fe20382ac238">
    <g class="5ce8c2e5-3a4f-485d-94ef-75b7afcfadc6">
      <rect class="4c37c7ce-c233-4f59-acb1-2270e4954096" x="-3" y="-3" width="30" height="30"/>
    </g>
  </g>
</svg>
